GEOID,ALAND
31129,1489645188
39003,1042479889
39085,593807218
29011,1533351029
26089,899241895
08115,1419419016
31089,6248078943
13227,601031022
28069,1984403152
17083,957415147
12095,2335820971
48181,2416026291
48107,2331503429
72151,143005186
40003,2244392665
21193,879818914
19121,1452999207
48005,2066264544
17011,2250935503
18157,1292163432
26037,1467017475
72133,88150113
37131,1389988119
46081,2072127357
08059,1979623397
20035,2915648165
51045,849770459
25027,3912554985
06031,3600883803
20115,2445722726
13291,834197337
22053,1687025359
08037,4362757834
29209,1201446581
16069,2197139822
13113,503436770
02275,6619997018
20001,1295764239
19165,1530110542
34009,651338862
33005,1830367250
24009,552162128
35043,9609141717
40147,1076201559
48323,3313817729
37163,2449357434
47163,1070743305
56011,7393068935
18139,1057035401
29195,1956717081
24003,1074353655
54101,1433481441
17155,414649309
05023,1434077953
27061,6908331692
10005,2424573396
18059,792423987
29097,1653723341
53061,5404072228
17125,1396914851
53077,11122733955
48213,2263013491
18087,983236292
13225,389234752
54037,542073026
48439,2236863682
28123,1577902075
18083,1336486449
31047,2623887235
30027,11238811024
06069,3596591082
30039,4473328964
26165,1463148726
51173,1168992137
27059,1128561671
48467,2182248065
34029,1627387052
17141,1964903717
20027,1671315283
29025,1104350538
21013,929965649
06019,15432139300
48111,3893095083
48499,1671170961
55115,2313441748
27079,1162049825
72143,71816283
24025,1132148068
55015,824344287
53049,2418037181
02013,18091501984
36055,1701280157
15007,1605492324
28103,1800451925
41065,6167112266
47189,1479110611
36095,1610503569
54049,799666879
55031,3378102279
37065,1309064804
51720,19366113
40087,1478150205
72149,92298569
13301,736483608
30085,6098391680
53015,2955625058
37197,867496099
20169,1865418116
17043,848891774
31059,1490202782
02016,11381568820
21139,810998697
42001,1343396085
49049,5190511352
36047,179671310
21219,969958282
42095,957730763
39029,1377658481
12083,4113978836
17097,1149695575
08063,5596501939
47091,772956182
21041,332995861
47139,1125622729
38075,2272103544
48451,3941965407
19135,1123320774
45033,1049118937
31065,1862542306
38025,5201969429
26023,1311605515
21191,717836518
47051,1436135352
13131,1177153102
06063,6612400910
49051,3048454179
39035,1184093716
30069,4288047862
47033,687714853
35051,10829248654
31123,3687721317
20019,1654694136
01111,1503615937
30091,4340323253
45091,1762934643
18175,1330454436
16025,2782253889
54041,1002141346
40119,1773885714
21179,1081366442
51570,19475232
25011,1810916209
05137,1570754768
32001,12821785223
09007,956493754
20039,2314199329
39115,1078538278
20111,2194978406
37109,766230937
13279,942778662
18171,944543945
12041,905705573
51595,17881071
18037,1106611849
40063,2083606775
30073,4207608384
29119,1397247160
48271,3522525626
22061,1221806127
48359,3886337115
12043,2089001842
51137,883475383
01095,1465531863
17053,1257690128
51079,403865093
66010,543555844
39067,1042032640
48255,1936008333
17171,649542040
36113,2246082355
55129,2064515990
13037,726191502
48273,2282572445
42011,2218082423
25003,2400600620
37045,1202311340
19049,1523741177
37185,1112117463
48485,1625459969
37137,871546184
21113,445905563
47055,1582304830
20191,3060472194
13311,623522401
22059,1617925445
19103,1587640014
02090,18983544936
72037,75201647
45041,2073312305
27003,1092880512
24045,969744608
08123,10320918528
42067,1013695972
26107,1437772998
48075,1803954627
21227,1403048148
19051,1300661911
12075,2896183010
29169,1417013177
31009,1840673981
48151,2328272102
13069,1533928847
19083,1474505068
45037,1296926762
33015,1801042583
48405,1374395183
18085,1376412110
48199,2306612357
36099,838403628
54071,1802759655
41055,2133151636
29215,3049103790
05119,1964339922
40023,1995090099
53071,3289368965
48263,2337482037
30099,5883425281
37053,678350084
18029,790171242
39137,1249783588
48411,2940447162
21185,484953303
38065,1871017444
50027,2511196442
15001,10433635363
26083,1398883258
45065,930140100
30061,3158799744
18133,1244585894
13317,1216001409
13035,475754783
38069,2637345167
13187,732817525
51199,270935371
26073,1483282623
47045,1326983955
25021,1025912910
53067,1871240012
37047,2429722359
48441,2371228266
19189,1037261949
48505,2585876219
21019,414054164
47101,730614737
51810,633828557
44003,436581658
29143,1747873649
53059,4294930645
48057,1312707005
21003,891838779
38099,3319346396
47129,1352439675
08027,1913031921
18111,1040539828
05049,1601099815
16033,4566524478
27105,1852081296
16053,1547443957
05015,1631823636
18179,953341278
21127,1076387827
48289,2779462025
08097,2514104907
46097,1476734131
72039,172310203
51133,495828046
55047,905314776
13013,417082276
48357,2376792059
47095,429381243
01125,3421010003
51145,673927665
51610,5300262
39119,1721165860
38011,3009070659
48417,2367989254
36039,1676140495
19011,1854696286
37083,1874472932
20023,2641501921
48169,2313930832
06027,26410680788
29023,1799187755
05059,1593594553
19129,1132942922
28161,1209914665
22039,1715558149
06013,1857229826
31141,1745910556
48325,3432663443
09013,1062807466
08079,2268209075
18043,383227470
06003,1912292608
48371,12338274936
47145,934357847
48239,2148246695
09015,1328478482
39157,1469641510
56005,12437291887
05037,1596421810
01117,2034134905
51685,6538719
30003,12944280225
31165,5352724896
48089,2487129887
40065,2078860509
22067,2058860093
18109,1045940869
13285,1072274471
06023,9241426488
51183,1269679003
35041,6335242828
40045,3189510402
34035,781830431
51015,2504708348
29167,1646006161
16071,3105269253
35027,12512530057
18155,571525793
33003,2413511287
20109,2779039721
55025,3098882969
38037,4297393836
26067,1479710906
12105,4655603728
29007,1792905920
45029,2736271582
05055,1496205800
21103,741500310
31183,1489717866
54025,2641303483
51051,855863022
51520,33420176
17197,2164895527
48117,3876750566
29047,1029948537
19057,1077768387
34011,1251898273
48021,2300439612
21125,1124024367
29115,1594366554
48387,2703626782
13051,1121767063
30055,6843332002
45061,1062372374
36121,1535219547
51690,28376610
17117,2235091594
17081,1479412106
20179,2320518304
06101,1560546528
48423,2386604273
53025,6939874184
48025,2279809490
53001,4985698857
32009,9277049964
13217,709140711
34019,1108076939
47021,783535609
19141,1484154177
01127,2048686078
01101,2034017780
37019,2199399191
42119,818323461
19183,1473215985
47151,1378652164
30019,3693365371
19167,1988888285
36071,2103886749
08049,4782273598
39175,1053812243
19029,1461422458
31109,2169270569
48327,2336237982
13171,475264443
16051,2832617272
47115,1290472802
51181,722475750
56013,23785388828
27095,1482415009
08017,4605713960
16045,1449796187
26153,3035145674
13045,1292475864
38013,2858179013
48123,2354237927
02220,7433305220
24015,896909987
02290,3.77039E+11
04017,25770517979
31131,1594561663
31099,1337063538
51073,564124717
20187,1762103387
29163,1736428533
22037,1174307281
29165,1087240598
42015,2971786846
17159,932484096
39023,1027907572
51770,110129457
47179,845605992
12117,801150340
46061,1125574352
16085,9492607317
54033,1077454934
17199,1088349246
08001,3020716474
78010,215914992
48201,4418909573
53009,4503168731
05107,1801669169
24031,1277027149
48419,2060566172
72129,137547968
27037,1456983368
19175,1097235807
21039,490647294
60010,65124866
51049,770525893
28117,1074806616
42111,2782573989
13245,840016006
27159,1388950411
37097,1487420594
30017,9798723675
19161,1489300198
19067,1296550076
29207,2132124564
37071,921386282
21099,1068530146
20159,1880936103
20135,2783562233
34013,326557454
72017,48421893
42045,476078165
06099,3874667416
35025,11373854756
42055,2000245529
42079,2305001140
26039,1441077804
48307,2759893535
29091,2401562319
72025,151780149
05035,1580882918
31091,1867796142
51640,21332076
34031,481767296
37103,1220836962
21009,1262837133
30023,1907999323
53035,1023372595
22071,438830826
12039,1337233845
28075,1822508252
16027,1520445185
20069,2250356170
13111,1002597261
37043,556804505
35011,6016819475
22111,2271261418
25015,1365534282
40017,2322131002
39017,1208303733
41005,4845035564
18007,1052616465
17185,578403998
41007,2144872198
19027,1474835095
12051,2994619266
30087,12971010158
26123,2172706351
20051,2330762299
31103,2002257565
47159,814020539
51063,986585626
13145,1201300628
48311,2952065878
36031,4646744234
08099,4243429484
39131,1140324465
01131,2301075085
10003,1104157957
20165,1858997555
18107,1307030254
11001,158340389
20059,1480882184
54035,1202685084
13137,716980220
06041,1347950152
48401,2393244509
13053,644226248
16009,2012242918
13019,1174237672
26143,1346526274
40019,2129492350
35055,5704119383
01053,2448115116
35017,10259475126
39123,659705457
40005,2526393964
40111,1806373387
38083,2518053323
72081,159155307
55089,603514427
55117,1324851059
32005,1838170319
12101,1933633890
56007,20455215112
13059,308784925
13159,954167633
42069,1188213226
12031,1975200913
05149,2408958968
31011,1778166040
37107,1033630022
31119,1483084606
17191,1848810372
72023,182247775
51036,473711563
08011,3918255147
05047,1576909749
22075,2020951599
55001,1672216056
45085,1722533207
12005,1964743641
21195,2037621870
23017,5379284550
28129,1647926089
20007,2937240786
22103,2189053583
12111,1480568023
21157,782708021
42087,1064602268
20153,2769775708
12003,1515738968
48195,2382296646
48071,1546618329
16061,1240141959
13133,1004043243
27149,1459744432
37111,1139477323
21123,677419096
46107,2230336531
38095,2654501912
39061,1049999711
20185,2051389756
49047,11609319514
51011,865622498
05087,2160720581
21205,724781543
20125,1666900087
47155,1534538395
04023,3201833002
19087,1124799047
29121,2075118025
46059,3720905364
21133,875235599
38079,2338477672
21073,538305689
54013,723252961
05017,1669835058
13157,879737593
08051,8389338078
31169,1486153245
20155,3251231982
51650,133275943
39031,1460647672
02105,16981186974
60030,82093
50019,1796347026
21233,860132094
53069,680962890
31137,1398048600
48147,2307251018
20043,1019105691
02130,12579378509
37057,1432727271
42117,2936458661
32013,24969533319
17005,985073265
22107,1561204507
08111,1003660672
41029,7208597903
18091,1549512632
17033,1149031255
39051,1050103171
19195,1036314923
18137,1156231106
17055,1059101590
01017,1545085607
47141,1038860580
38009,4321075833
27033,1657522315
05133,1464132101
02020,4420591351
39161,1059702138
26009,1232002671
26075,1817863745
28109,2101267284
21117,415149811
47073,1261465131
55085,2885097073
22035,1089628528
21151,1132738966
48251,1877798304
18049,954133353
28149,1524286571
13139,1017862667
08045,7633795354
72153,175371927
25013,1598023769
19059,985542270
51061,1678327963
55007,3827675487
21063,606882499
32510,374670880
04003,16083174724
12007,761362115
28091,1404769586
72111,115558557
51530,16674748
38001,2557733901
48457,2394158696
35033,4988962825
13167,784815227
05095,1572467982
54019,1713569366
31149,2611466193
51197,1196377810
48471,2031124893
72145,118745077
13091,1284521385
55041,2626878506
31067,2205275202
49035,1921943552
09003,1903543898
31085,1846821518
42047,2142883446
51700,178689012
48179,2398261679
05067,1641629489
23031,2566874777
28007,1903529290
18149,800679810
27123,394308034
27113,1596928772
48253,2404986877
72147,131541395
56021,6956354974
48335,2359710929
51678,6473000
37079,690839648
21167,645065865
31061,1491355860
20207,1289344336
30077,6024421096
02158,44222017663
28027,1430939226
12023,2065648366
48447,2363499444
05029,1430388148
29147,2271326614
38073,2233792873
47121,505397665
19041,1469139463
29077,1749088388
42077,894308181
19033,1471889958
48105,7270935061
08075,4761947979
40077,1870210358
39167,1636805233
18067,759058571
21047,1858341167
26101,1404616391
40139,5286873577
13237,892721781
47077,1346816748
54043,1131929493
47167,1187273255
48183,708052199
24011,827350252
39173,1598510313
16007,2527123158
48285,2511535250
39045,1306415001
53057,4481252102
01007,1612167476
46031,6396478457
21187,909365295
27055,1429786020
21181,505465731
45025,2069363225
28155,1090760204
35035,17126456785
72115,58747683
29117,1378657551
13063,366946710
27073,1981394517
55053,2558687761
31017,3163296263
21077,254700873
21017,750439352
17147,1137492084
19101,1127999808
29179,2093946392
26159,1574265761
47105,593811362
13129,923182326
12055,2635685460
31157,1915079305
16019,4832872006
21087,740863549
46137,5079588972
72029,85127777
37051,1690129718
46119,2607399720
55059,704075246
26139,1459487790
08015,2624715697
38089,3457408930
06089,9778407493
22113,3038604870
37193,1954249757
26021,1470543783
26119,1415881032
17163,1703443126
48137,5485259735
17065,1125731579
56037,27005754251
05031,1831907088
01121,1908293036
26155,1375178357
51620,21438217
20189,1883593917
01003,4117621645
13263,1013662781
13085,546042257
39135,1098741224
08089,3268424427
13097,518355038
37135,1029672897
36079,596542964
48093,2428768921
29186,1292800497
31163,1465489225
48491,2896486658
55073,4001992795
53073,5459374970
05009,1528080514
29111,1308052629
40009,2335338428
53003,1647427904
36073,1013366843
26137,1333860412
27173,1966062958
21025,1275352765
45067,1267172614
19015,1480329000
37147,1689629354
19099,1891760880
48287,1629158370
06001,1909614756
20193,2783425127
20143,1866683176
47157,1977610549
21085,1294807622
56029,17972027717
19019,1479090265
27069,2845915560
29141,1547866664
47007,1052644812
13175,2090974815
36061,58690498
05039,1728522507
51630,27067167
48125,2335454676
55091,600894494
20097,1871627782
48233,2298408152
48465,8144863666
55049,1975379914
12001,2267634813
42017,1565393345
30035,7756874927
12113,2622050628
21203,819853864
18103,968246954
21149,654041005
41059,8327974446
46102,5422402161
12061,1302203837
42103,1411441244
20163,2306454196
13117,581585514
46111,1474346388
40051,2850386644
55078,926217566
35061,2762854204
55029,1248277426
29029,1699143493
40047,2741521308
26091,1941504139
12131,2687740188
26103,4685406068
31015,1398424239
21209,729774435
47013,1243685300
08067,4376255148
26003,2369925449
72067,29384893
29109,1584393370
38081,2223461624
17029,1316447134
27121,1734075761
51057,665855329
35047,12228666254
26071,3019919277
05141,1838244470
39091,1187534495
20139,1827253333
48225,3188278910
28019,1083122611
17059,836540704
39087,1174224668
26015,1432508482
37169,1162941527
39129,1298175198
38047,2570819041
17041,1079110176
05065,1503735021
29051,1014104083
29173,1216742135
48159,736570305
13099,1327626601
28101,1496636747
36045,3285923214
28135,1671120103
35013,9863164217
55067,2255098198
19021,1488981859
13261,1250646284
41057,2855122940
48329,2331915364
51660,44908386
21091,486071470
46013,4436728163
20045,1180425074
48145,1982545002
47083,518758194
51077,1144218808
04005,48217246133
39079,1088598927
01087,1576855716
41019,13042325534
23027,1890615339
20133,1480129683
21089,892153296
21101,1130509780
72047,110248534
40149,2597989594
24035,962673216
20013,1478550075
72107,164788358
47059,1611409740
38067,2897362282
06065,18671212657
19169,1482881240
17157,1490194115
13011,601022383
41021,3120213942
48185,2039529235
40145,1454748498
13105,909338653
47071,1495273054
13093,1016908653
47143,816838004
48503,2368539760
48009,2339508173
39009,1304386904
13221,1137166303
19111,1340448547
26047,1210872498
40079,4115999004
46017,1220933807
40043,2589042126
42093,337326257
36037,1276705469
31185,1482794061
21213,606589172
05053,1636384327
28037,1460658783
42105,2800612694
40073,2326005907
27053,1434450857
17021,1837569692
26133,1466674350
51031,1303300941
49021,8537474393
46019,5827518214
51730,58845276
13021,645938978
41015,4217488411
06081,1161957020
53075,5592461103
29217,2140343869
08039,4793643980
48379,594280898
20067,1488745973
27011,1292861685
21079,595952848
21115,678485015
30001,14355492109
72085,87748359
49033,2664700960
12053,1224962206
48019,2048666866
30097,4805735230
28151,1879404534
19045,1799818625
72127,124029895
20113,2326547432
01081,1573514768
38003,3863118055
22043,1665429793
27109,1692860704
42099,1428244411
08117,1575590637
13223,808928487
13079,841521988
37153,1226849546
05079,1454383536
13199,1298162536
48099,2725181904
19001,1474404191
08014,85478765
12081,1925994820
37139,587616451
42057,1133252791
17075,2894039691
19157,1514945159
01083,1450277886
51141,1250846143
38045,2968139583
06045,9081426663
48055,1412165279
27049,1959861773
37173,1366810463
41045,25609052021
35021,5504963123
28023,1791177229
46041,5963417247
45077,1287165247
18023,1049119213
13003,887636792
72021,114816263
51127,543990076
48167,981349683
39151,1490056765
17089,1345136016
45055,1881915806
21141,1430224005
21031,1103571982
13309,765314383
41009,1704508477
37061,2110215814
22009,2154960193
31161,6322057037
13229,881760420
19107,1500071923
05005,1435504137
44007,1060563703
13107,1762672232
31153,616811568
13071,1416818776
17173,1964532713
04007,12323152721
28041,1845983328
55005,2235266753
12107,1885167063
26025,1829206358
20127,1800929258
02170,64009263421
29095,1565689799
48337,2411034607
51043,455664148
28153,2099745598
19149,2234715215
32029,683680818
28159,1572773189
28053,1083947280
45049,1450327705
13185,1287636223
48331,2633815931
51007,920379346
13243,1109126228
48399,2722259325
18011,1095336920
40117,1472023155
55009,1372933170
17133,997988611
37191,1434643400
39011,1039590266
36081,281734463
29099,1700242389
36063,1352887561
46047,4506292097
19073,1475303196
46045,2916276415
18071,1320827167
42003,1890994512
38093,5754703479
19171,1867410516
12089,1680074659
13057,1090600986
29199,1130548363
31093,1474578450
55099,3247987842
20083,2227369149
23009,4110637088
45079,1961464846
16047,1888932880
37041,447179930
08009,6617400568
48035,2545908140
17015,1153597403
27125,1119929324
42115,2132844489
36025,3735857754
42071,2444751463
29510,159915117
41063,8147835329
51735,39837595
45023,1503905793
32003,20439276974
36003,2666029673
13119,677441264
21097,793603854
42059,1491658067
27001,4718433588
48309,2686203607
47165,1371288348
13297,846447052
50017,1779395566
18031,964946132
51005,1156608818
27133,1249560753
39015,1269138600
29067,2107274105
05129,1724955843
28097,1054074827
48223,1987629163
40089,4793716602
36043,3655873433
47173,579064833
55003,2706476265
42035,2299868389
55125,2221451557
19113,1857223982
13215,560678533
20005,1116736558
51093,817607278
55131,1115362196
47161,1190814525
08103,8342275014
08087,3316441486
37067,1056221627
42113,1165338429
20089,2356813567
40011,2404772608
53037,5950002896
48377,9985057448
20065,2327173854
01001,1539602137
53047,13639362794
24023,1681102437
72099,130383573
18019,965645927
55087,1651320404
05033,1537849721
31111,6641072809
48067,2426730190
28137,1048332513
17073,2131698418
41041,2540784310
17061,1406464906
22115,3439290592
72091,116913007
51191,1453399740
28013,1519218284
55051,1963751253
26141,1706069658
36105,2507463739
37105,660607408
20105,1863226709
13247,336228288
31021,1273201348
01005,2292160139
27131,1284215162
13281,431139631
54095,663818549
53017,4711869840
48081,2361153195
37129,497927594
24037,929021301
35057,8664061332
20017,2002199320
13029,1133242924
54085,1170648846
49001,6689681828
26145,2073813743
72061,71444636
21153,798866769
48109,9873439554
13271,1132621096
19143,1032593811
17165,984170285
21027,1475790362
39013,1378199039
27091,1844928064
17195,1771808919
48141,2624297650
28119,1048975532
28157,1756287127
22125,1044589938
49023,8784407524
40137,2253798301
29205,1297230221
48501,2071252476
28133,1807187010
13055,811512394
21215,483611359
72101,100676186
26061,2613558378
05115,2104407172
30043,4291254981
51059,1012703532
47001,873352567
42125,2219586746
53045,2485238914
30063,6715862371
19077,1529698818
13127,1086632090
46053,2628707453
45011,1420294945
01055,1385871922
55011,1750289306
39103,1091568894
53021,3215718490
31023,1514886625
31039,1477652222
01027,1564251834
13115,1320434485
31043,684463003
54079,895302723
13193,1037709939
37027,1222192494
20101,1858080220
37063,741994332
30049,8957164719
47169,296143584
12011,3115289087
48133,2399644792
39125,1078561236
19159,1386932363
42065,1689799802
46073,1362677263
32021,9719815181
40115,1219409732
37013,2155109574
28143,1177611241
18005,1054009620
05051,1755025617
56043,5798138761
27071,8041217741
48461,3215010598
06075,121477743
54061,932631311
48381,2361896543
29089,1201237134
12013,1469394565
46077,2155483578
48153,2569637283
41043,5923936549
48375,2352718727
47019,883854966
36059,737195890
37011,640602134
16003,3529648933
06109,5752029633
72093,94851787
39037,1549072768
54047,1381648552
09009,1565683007
55105,1859985958
26157,2084165734
05093,2332481583
28095,1981570208
48437,2305502705
06017,4423299441
37073,882181716
38019,3856631212
48163,2935753506
33013,2416153059
13031,1750705245
28115,1289201637
48053,2575162935
13259,1188153055
01077,1730146078
51740,86248210
01029,1450663786
47187,1509623740
17017,973198204
16015,4919826443
16079,6830898569
19105,1490844765
01045,1453244559
49009,1805185914
35019,7847072129
51003,1866007829
28021,1262400022
01123,1855782851
48023,2246764582
27051,1418785986
20037,1527498535
33011,2270197483
48355,2171176848
36083,1689852106
04025,21038727465
34027,1193878537
29211,1678265048
48415,2345090477
20025,2524300310
26051,1299620448
45057,1422080330
34003,602911111
72031,117508983
49055,6374011496
17101,963938131
17019,2579920046
40143,1476502056
39121,1030846459
19139,1132977157
54021,876717626
28057,1379933023
23013,945697332
08021,3334423894
22121,498293566
51800,1033802703
29049,1085094819
39159,1118161949
22065,1617200406
31027,1917219995
29063,1091311297
51683,25509473
72089,66851395
42039,2621848897
47063,417477308
48219,2352723915
48365,2101400909
20197,2057320865
34001,1438776649
55071,1526291643
48011,2354581674
01091,2530140237
01049,2012676480
50011,1642369811
48391,1995545556
19053,1377567269
21061,784468358
24001,1093462025
18117,1031794491
19151,1495047191
05019,2243130283
48413,3394546067
20151,1903740948
51097,816268317
17035,895989980
18143,493136550
40101,2099505908
48367,2340624036
13183,1037013527
26149,1296536370
34039,266163527
36027,2060720815
56017,5191447312
48333,1937867073
48403,1273523414
55123,2050135745
40097,1697419131
16013,6831708301
08031,397024773
37005,607139719
40033,1638512879
29221,1968043952
17001,2214804481
45031,1451949379
55137,1621751247
02110,7003264582
31045,3616875592
26129,1459466634
48131,4645084675
55065,1640985427
01093,1922657342
21095,1206496124
51037,1231010119
38103,3290664846
39041,1147778026
48065,2383397227
13033,2142010451
16067,1960610400
21059,1187227810
29149,2045563487
26127,1393667732
01011,1613076054
36023,1291815777
42029,1943860643
24033,1250062233
39099,1065773136
36085,148976885
27077,3361369356
55121,1898472769
20107,1538662701
05013,1627975429
08091,1402719363
47125,1396430597
38055,5465546322
01047,2534919607
37195,951946703
47079,1455320363
18053,1072484468
13257,463996899
48097,2265770199
12071,2023963480
51171,1315900415
21107,1403944044
04009,11970605964
30109,2303979500
13315,978525378
16075,1053846155
48095,2547914005
47131,1411148390
27031,3762134457
30009,5303530757
55013,2127832846
37141,2256645338
09001,1618659464
51710,137981426
56045,6210804117
13161,857073381
48315,986485096
18075,994310119
54089,933930185
01079,1788864251
48421,2390195608
29113,1622809699
48013,3158596631
13219,477424988
12079,1804001484
31159,1479995666
39019,1022031301
22091,1057772649
55139,1125859768
30021,6143238450
04001,29002035366
13253,615215134
48171,2740729668
51099,465234034
42075,937089776
29057,1269121007
39105,1113957867
40099,1078402382
10001,1517888728
30081,6192655807
20117,2331441883
30105,12758539633
51187,555641045
18041,556901555
31081,1403509086
13207,1025872449
47053,1561102696
51149,687232237
38027,1632310788
53053,4320226613
40025,4752131813
31125,1143733235
06021,3403160291
33001,1040771458
51159,495925425
05057,1884271055
55111,2153685971
51095,368724192
22105,2049482871
41013,7715390842
13273,869559691
27085,1272943172
53041,6223179711
20199,2366348284
16041,1717211132
01063,1675782059
19147,1460400549
27039,1137724834
27047,1831756453
25001,1021019039
17049,1240007567
39069,1077461471
38057,2700790004
29019,1775568659
48305,2309924849
40029,1338427185
31105,2465269087
17031,2447357982
45047,1177727678
06035,11761615584
39021,1111090195
48259,1715747627
38029,3910888908
22087,977751170
02198,13633096724
41023,11726925903
35006,11758505180
38043,3499233948
42107,2016645873
38087,3147520228
01119,2340898915
51087,605218124
48209,1756075985
51067,1788703111
42021,1782850495
40037,2460107102
18039,1199603973
47085,1374668729
20063,2775601943
24027,649952136
48495,2178876165
46071,4827433523
22093,628956073
51013,67332991
48087,2378749928
48497,2342369030
13169,1020304148
55045,1512667089
22079,3419675969
29161,1739918996
27167,1945079889
17149,2153190725
08053,2893614473
40069,1665488649
21023,525033515
55037,1264232458
38077,3718378999
16035,6364412866
46121,3596445667
46125,1598188442
36065,3139921947
56031,5390926633
53005,4403230415
22051,765849559
51001,1163708393
26081,2198576456
06077,3606127799
34015,833916105
19173,1377618880
17121,1482865607
19163,1186437845
31053,1370269383
48039,3530854236
13155,917795232
29135,1074917556
37023,1311146877
19193,2260790994
12125,630804540
13241,958658531
02150,17133712542
21211,983610918
45027,1572019537
05007,2196053836
01113,1660622936
40013,2341975631
72079,155287830
22073,1580933156
06025,10814594615
48279,2631897589
16087,3762870369
27117,1204489353
16057,2786483015
30047,3860290983
20175,1656693307
13275,1410566922
72045,73557188
45087,1331696510
53011,1627765527
20053,1853331063
28001,1197464266
22063,1678761759
08035,2176240583
06033,3254349190
13005,735776603
17095,1855427715
20203,1861078197
17111,1562786765
31049,1139209085
05043,2145488990
01073,2878552100
13083,450605307
17071,981077355
28067,1799554023
27013,1936751358
47119,1588022042
48249,2240779223
20085,1699600349
51775,37602710
51121,1001921573
35003,17933559836
26109,2704053268
18151,799729298
13073,751293211
48119,665192113
39163,1067997064
72049,30115054
13147,601970613
17135,1822726466
26131,3395416179
41003,1748712549
42063,2142730129
29081,1871309893
37025,935650180
12093,1992107752
05069,2253424970
27171,1712289572
18165,665275343
06055,1937986794
31025,1443537055
26053,2854517941
04013,23829622328
17129,814269350
51111,1118097709
04019,23798597214
31179,1147147009
20061,996272768
24021,1710755614
06095,2128488719
20009,2318705423
28127,1525930816
28131,1153800122
29017,1600364571
13023,559106469
20015,3702816817
28121,2008522848
47181,1901333915
19123,1478517367
13151,825296435
47107,1113997270
40123,1865835819
35028,282843396
72117,37005462
25017,2118225748
48347,2451572329
13095,851183463
01023,2365869841
20057,2844508243
28051,1959776826
37007,1376478136
02100,6072297430
78020,50998479
22127,2460711980
42013,1361819111
16031,6644897847
32015,14294783154
36057,1044066970
27035,2585751598
29181,1630478460
37177,1012103918
48049,2446120247
19009,1147264566
40121,3381281071
29001,1469362058
21131,1038205991
27137,16180477493
39093,1272195542
47147,1233648335
26099,1241050552
30005,10948196437
29053,1462703861
54083,2692810851
13213,892235146
01015,1569195268
06007,4238488156
27115,3655220986
22013,2101207369
13295,1156145280
19023,1502550830
29027,2161518207
12123,2702180425
30025,4197320394
23005,2165087512
12019,1565946418
45005,1056949844
28043,1093291104
51125,1219224530
31035,1482222907
48267,3240035979
26111,1337157039
21093,1614589639
35049,4947856149
48425,482948955
31147,1429261307
47109,1457753398
39049,1378938272
45053,1696861246
46049,2542569585
37157,1464997156
41031,4615977076
48281,1846250642
69110,118890997
31063,2524283299
05131,1375720610
48409,1795990944
22089,719371428
39063,1376125660
51179,697237202
31181,1489017962
48127,3441795367
19031,1500798712
46039,1612885709
19089,1225702842
12099,5087468869
36089,6939877189
46025,2480181884
31057,2381956151
08003,1871465874
12017,1507142302
45089,2419477548
55127,1438529014
18161,417480644
27067,2065210393
23029,6637431507
72103,133799723
37093,1010416546
27161,1096505110
16049,21956620022
31087,1838742723
30011,8651796239
38005,3596341060
19181,1475873109
42073,925211452
51101,709469217
41011,4133803901
48165,3891105258
22047,1602243589
12037,1411908392
38023,3265658855
17181,1070730011
45013,1492221617
55023,1477970890
48303,2319592469
12029,1826222177
13303,1757341877
53063,4568463940
54055,1085106039
12033,1701552902
40103,1895660471
37187,897456203
17109,1526339596
34025,1212585319
40041,1911485747
20011,1645861886
06029,21062540828
54007,1322796519
37081,1672939034
01107,2282674053
08107,6117602807
51590,110844523
54087,1252422373
17201,1329068433
60050,72498512
48047,2443277014
17123,1001843226
26069,1422173770
31051,1233119999
13001,1316423275
48073,2727141730
27023,1505260387
28047,1485725579
53039,4847515963
30067,7258365000
13149,766564615
48297,2692796906
08125,6123763561
16005,2881339307
48493,2081662852
18181,1308306951
47117,972442320
55141,2053901351
13067,880052398
08019,1023234039
48217,2483426715
31033,3098367766
20079,1397961184
72027,120058695
51115,222506456
36067,2016013104
49007,3831067717
42027,2871502921
54067,1675324339
18145,1064843786
22123,931478638
54009,231015798
29171,1339843851
18097,1027109536
72059,109480385
48475,2164201060
16029,4569240762
05011,1681512201
16021,3285863793
46023,2842481185
48459,1509910856
40061,1493706599
51165,2200943610
37009,1100930108
51177,1039889019
56035,12655929028
48479,8706186717
37175,979930393
48061,2309341040
37055,992557887
12057,2646772012
31031,15436868249
51117,1619544361
13189,666848710
31101,2749531879
13025,1147949245
26007,1481127630
21231,1186690748
47185,975592111
42043,1359456340
31171,1846403702
48027,2723084632
01019,1433623319
36111,2911757960
23023,657782149
19109,2519361795
19085,1804814770
19187,1853677022
17151,955326683
26151,2493046958
51540,26533570
01013,2012002531
06083,7084063392
48433,2373238700
06097,4080764059
48383,3044049120
29093,1425178293
18051,1262416968
39033,1040619651
31127,1055100614
32023,47090939040
17175,746156170
27005,3406052328
26135,1465088063
50021,2408219235
51550,876737871
72001,172725729
38091,1844441513
55097,2074258117
17169,1132602885
31071,1474558345
28035,1207042881
17177,1461392067
72009,81094465
48345,2562963902
31173,1019377259
21171,853220885
51143,2509705662
26161,1828437283
39071,1432479990
06113,2628144759
42133,2342299893
40093,2473438538
27111,5107086047
72135,69972579
46021,1900214169
48139,2423348506
05045,1678199700
27075,5462973366
18141,1185940302
21183,1521059918
16001,2724700350
42049,2069551279
46109,2851702828
40027,1395453713
27163,995618866
05123,1644019105
28005,1890950865
19153,1482025679
40113,5818679077
37039,1179845619
54017,828078405
06103,7638228749
21035,997224264
19155,2461811904
13121,1364208323
48313,1207103453
46003,1834902865
38053,7148712746
46105,7434457143
01129,2797720322
27043,1845309105
48443,6107081791
51023,1401900525
13269,975613091
42123,2289908286
04012,11645512187
26077,1455523647
20055,3372157850
17107,1600757857
19179,1118453196
40153,3218800597
41071,1854169185
72007,77919491
51175,1551909771
39077,1272964850
05109,1555611456
08077,8621849401
20103,1200213586
29159,1766953612
08033,2763958510
27029,2586947430
06087,1152794691
48031,1836953627
51069,1070102010
01031,1758565919
23025,10163845447
48339,2699517016
30057,9293284427
02230,1123881121
13123,1103886891
42053,1106623930
37001,1096718106
17025,1212815740
29103,1305376627
18115,223126823
38085,2833580511
18173,996664711
72053,77448650
48507,3360268878
31007,1932676688
28009,1053131421
21055,932300421
51119,337554148
38035,3719806629
20071,2016057905
13251,1672540367
04027,14280777606
29043,1457250993
28071,1636080566
28085,1518269800
49011,774573895
39001,1512208932
39059,1352631181
19039,1116716166
20149,2177507164
48481,2813117310
47009,1447336318
27107,2260512789
01099,2656469660
50009,1718713996
29105,1980383097
54107,949251416
29041,1945541996
06051,7896838483
05027,1983887989
48449,1051697794
26065,1440196596
20033,2041681114
48489,1529652132
36049,3301307122
18077,934051509
54073,337007574
51071,925205239
44009,852827550
13289,930478091
01115,1635786810
18061,1254889463
12087,2546034512
72069,115818155
29073,1344216320
39117,1051881046
29045,1306924729
17127,614453457
47043,1268830627
29009,2015203933
19075,1299797800
17087,890268816
05041,1989461618
47135,1074228439
54023,1236388353
48235,2723485995
54063,1224426776
37095,1585966935
39043,651069515
29189,1314263296
37167,1023390690
48191,2288233615
15005,31057603
41053,1918983325
01041,1576952799
26043,1970845139
36007,1828061552
45001,1272789833
26017,1145399057
48321,2830603629
05061,1524380362
22015,2176404826
56001,11070455501
13103,1240134674
72054,39391499
29197,795916404
01035,2202007855
12063,2378066187
56027,6801380673
39025,1170983309
48051,1706888861
30041,7508815833
51021,926311270
30111,6820664370
29187,1170381746
47015,687992430
27147,1112775688
51185,1343661944
39089,1767507224
31079,1415146251
55109,1871147432
18009,427559407
13177,921731012
51103,345238878
42007,1125901370
40001,1486277939
56023,10555073735
22019,2756144275
30065,4840577745
46101,1345196858
54103,927389120
47123,1646657184
20075,2580958328
01105,1863900621
13075,591606618
47097,1222389174
17131,1453604361
48157,2231956074
27143,1525073949
13293,837774874
17115,1503684109
72139,53786137
37159,1324727249
54011,727837358
06073,10904373558
47177,1120619143
36109,1229314959
17093,829412768
19065,1892840956
28111,1676259645
46129,1835374267
13277,675699704
02195,7512659027
29131,1534831730
29021,1057347849
27025,1074585062
35007,9733110165
08055,4120756304
51113,830447699
20091,1226667300
27169,1621638207
21051,1215472435
24019,1400573745
38049,4853487956
45059,1848641840
40151,3331924479
30093,1859568275
40057,1391491968
13077,1142012458
36119,1115219580
17027,1227502416
26147,1868251511
50015,1188468700
49025,10333912584
27093,1574893021
12085,1408486860
55083,2583464365
31073,1186616237
45045,2033481265
31005,1852759730
37161,1464476077
31097,974023321
17063,1082940535
23019,8798699751
02164,61912947833
27101,1825073511
47031,1111010383
17145,1144367942
42083,2536067959
08069,6723025059
72057,168319191
32031,16358779479
17079,1281043656
72141,294045387
47011,851489145
48291,3000095674
13017,647812569
21037,391968572
22109,3185239627
45021,1018735996
48197,1800337392
37059,682965396
72125,141145014
18113,1064081178
18021,926186141
46065,1920546202
48427,3168019238
48301,1732230054
06059,2053367783
28079,1509697184
19091,1125014815
17045,1614400675
39065,1218096651
26113,1462793646
38033,2592280439
48269,2359148814
48261,3777375652
22057,2767038601
21223,392766455
20137,2274122713
46115,3894077295
47005,1021248370
51109,1284976751
18105,1021806936
19117,1115257644
27041,1649184455
39171,1089503873
13313,752230670
13255,507620135
19069,1507301289
44005,265311877
48393,2393298442
36051,1636254768
29129,1175427727
55021,1982756265
48483,2368629213
55019,3133097725
22001,1696880727
39153,1069119180
05075,1521913730
55057,1986729546
55107,2366092053
55133,1423770516
18063,1053849390
36093,529862595
31037,1066160352
19093,1117599852
54075,2435206760
40135,1744289208
20157,1857998461
18123,988702362
28145,1076417872
56041,5391631765
18003,1702451597
17009,791828628
48353,2362061742
51085,1211818311
47149,1603892757
45081,1173136866
51820,38771594
36097,850405405
21175,987114229
42109,851544549
51157,689900924
26033,4036515589
01097,3184158350
18047,995658324
08101,6179964847
06061,3644306246
45035,1472651489
48029,3212379601
26085,1470054606
24005,1549745106
55079,625435232
01009,1670103866
20021,1521791028
72043,202052324
72055,95959583
42037,1250947317
47127,334684848
41069,4444475023
12119,1442966763
29071,2389655153
01109,1740647520
38039,1835407690
37125,1806973893
26079,1449729125
47069,1729446895
19125,1436120669
48275,2203098612
31139,1484707285
17091,1752114613
38051,2524106808
26105,1281969422
20129,1889993633
37075,756189024
31145,1857036396
47153,688550851
29151,1571034360
72077,68605412
49017,13403572592
01043,1902970816
28031,1071784947
21029,769306781
29107,1627641077
72095,54816716
21229,769154199
46063,6919333233
27099,1842332264
40109,1835932121
19191,1786666637
51083,2117913131
37091,914689324
27157,1354435813
37085,1541100224
30083,5398974500
17167,2248804592
72065,108200648
47093,1316558817
37101,2049252369
17007,727180620
17137,1473584099
47133,1122721528
48101,2332448739
29229,1765788214
21007,639387454
51155,828377036
31019,2507679136
05099,1600206102
39055,1036773424
50003,1748232505
02180,59492073779
51065,743630413
18033,939731962
01059,1641841404
26097,2646617358
18125,865839128
48395,2214719307
26125,2245928625
20049,1668636737
18101,869615712
72033,12629291
31175,1471402793
24043,1185611700
49037,20253296804
13267,1245327267
48429,2322497228
53043,5984421213
13125,372299245
51091,1075266902
13191,1117201951
37123,1273075615
01021,1794477075
37171,1382386028
30079,4497780202
19005,1655115644
48299,2419185654
37037,1765648430
48265,2857603410
28017,1299608407
13049,2020415647
16055,3205833848
48041,1518090963
37069,1273757138
30059,6194909925
51089,990284619
26163,1584501319
39145,1580488534
47027,612626856
21177,1210451475
12086,4920565755
51009,1227554628
72073,115340543
48149,2460316895
48477,1564854987
42023,1026233354
17023,1298554908
19013,1465331241
17161,1107097990
18015,964057405
42101,347781835
27165,1126526388
16039,7964417370
13015,1188568909
29153,1929467303
16023,5792473996
72019,88714041
49057,1492536927
29127,1131623340
36019,2687779168
45003,2773048987
45071,1631805739
46135,1349873585
72113,297688621
42131,1029021857
02068,32729577049
21217,689891728
54045,1175258983
20121,1491519074
51153,869574665
22077,1443191040
17069,459435085
36029,2700648539
21065,655509951
41027,1352203435
19137,1098405773
12035,1256519820
13231,559660466
46009,1459586264
45075,2865422661
48079,2007453828
37099,1271961083
49043,4844777278
40031,2769653950
06049,10225096402
47035,1764645664
27141,1121230382
46035,1128284964
13235,645583957
21143,553848612
13299,2328980907
13287,739222162
17013,657422422
39039,1065649892
12059,1240232912
28059,1872035802
04015,34529358909
45051,2934453641
31029,2316533450
29213,1637832031
13209,624563060
48363,2467090693
40007,4700407527
06107,12494889125
51163,1545038073
47103,1477179212
47037,1303934398
56019,10759204099
72071,143255840
42041,1412783419
36013,2746047476
51195,1044903124
28025,1062066001
48283,3850545737
19119,1522007136
05073,1368278171
27087,1444868073
29157,1228574132
21005,523607691
47049,1291416706
47137,422113138
30107,3684208403
46089,2943892840
39147,1427151734
48059,2329363239
26121,1305130138
06093,16261933244
28033,1233644242
29069,1401438398
22005,751259388
51041,1097006029
17077,1511439610
49045,17979556883
12045,1433401108
48351,2418212542
21011,722081430
42005,1691756729
48205,3786435508
20173,2582031938
39107,1197723422
36101,3601520291
18073,1449563753
46067,2105694681
46043,1118358762
24047,1213155089
40095,962443215
05063,1978814985
05085,1997848802
01033,1535202321
37145,1016140154
20195,2303727352
13181,544884786
31095,1476736210
29145,1618106494
06037,10511861492
28073,1286381289
30033,12112233259
28015,1627263542
48203,2331138836
40131,1749883768
48103,2033319695
26001,1747349266
29225,1534731546
18017,1067476817
21129,540942126
49003,14881016779
13319,1163459874
08025,2039427872
31041,6670757258
28011,2270541557
48407,1474332268
39139,1282554028
48257,2021977077
04011,4771123868
13061,506093883
69100,85096798
41037,21078875998
13283,516529390
48317,2369724587
19097,1647344934
13043,629520839
01037,1685850815
18163,605216607
34023,800864377
25005,1432544616
36115,2152713603
35023,8905760686
08083,5255990025
29039,1228870880
30013,6988237754
26093,1463996483
46079,1457881926
37033,1101694778
51019,1968605128
05143,2439709563
51169,1387786298
08095,1781724976
28105,1186834313
21071,1018596152
37087,1433713829
13321,1478137689
21235,1133976640
31133,1116478180
32007,44479019136
32019,5183173264
40039,2560925953
39127,1056544098
51670,26817671
06015,2606117982
40127,3614424104
13101,1088849470
37017,2265887723
29219,1110087777
55081,2333329706
21225,887992798
27145,3477827398
47025,1125609180
69085,160067127
21109,894051380
22033,1179460545
30101,4959868815
13249,432291200
16043,4827633123
55017,2611628480
21199,1705275134
13173,509026287
28107,1774595250
48121,2278094573
19047,1849742863
13027,1277341272
13201,731471786
22003,1973083805
30095,4653551002
36015,1055038227
29031,1498414364
31069,4417083924
54091,447475051
72119,157008568
48015,1674405698
51147,906395971
12049,1651311553
18177,1040539262
21147,1105416695
49039,4117901464
20093,2254696660
50023,1779432159
40105,1465460409
29015,1823462209
51131,548349606
29137,1677427650
54039,2335215669
51025,1466538259
37181,653713542
56015,5764311422
13009,670027542
12073,1727237331
21207,657060481
25023,1705716224
39053,1208308871
01067,1454926622
29013,2167029202
28089,1850602740
48227,2333039143
46099,2089691755
26035,1461700232
34037,1343564828
36091,2097879145
49013,8379502732
38071,3070120687
47061,933545817
51027,1302386904
22049,1474183476
38021,2930554406
29005,1417462632
48045,2330991073
40015,3309366436
36041,4447989353
29037,1804223305
51029,1501215438
37029,622448680
08013,1881309466
12109,1555456032
29079,1127401335
47075,1380741545
26095,2328593560
33019,1392231686
13141,1220058037
54029,213957103
72003,79923633
29139,1385765315
48473,1329330074
05105,1428530422
69120,108237607
20029,1852726650
17039,1029678329
54027,1658633563
48445,2302083289
45007,1848871032
28039,1239816907
17085,1556385345
48469,2284644911
18135,1171656774
29059,1401057571
21081,668157705
13039,1632512482
38017,4571158976
46033,4032473656
38061,4727397872
02050,1.05233E+11
29227,690564983
56025,13831928329
19131,1215049038
22025,1833782907
16059,11819910390
28029,2013158769
02060,1248324004
49031,1964345824
21043,1060587154
26049,1649653741
22007,877029981
05097,2019984639
13179,1337652378
40141,2256226938
18035,1015536276
72063,72221273
21145,644190803
22117,1734245451
17183,2326634941
22085,2244636625
48373,2737733237
36123,875801459
53033,5478557088
41017,7815590704
36107,1343194530
46083,1495182122
18147,1027623726
48389,6825534320
12091,2409272023
37121,573036225
40067,1965685986
05145,2680828175
26117,1826793467
12021,5172045734
50005,1680952571
48085,2179221397
12115,1439998180
26031,1852551949
18153,1158170859
51135,814265583
01075,1566544637
29035,1314052439
22095,555086131
26045,1489767393
02282,19744199352
31083,1433471255
29061,1458893649
39097,1206445849
50007,1389750174
15009,3008348847
20031,1623623917
40053,2591904428
13205,1326483091
51680,126842532
48043,16015869882
72083,120071821
22029,1805172274
48193,2165008734
20003,1501272903
28049,2252849338
54069,274098954
54065,593295473
33017,951745163
48341,2330207191
49019,9512361695
05111,1964149129
48453,2569870978
20073,2961143639
18169,1068468089
49005,3016638914
55093,1486700515
13233,803758612
29101,2147773696
24510,209650970
48245,2269793077
29125,1364867202
31077,1475804204
18057,1021354950
28087,1309092521
17057,2242134871
38015,4228659152
39155,1600837668
08113,3332606082
54051,791063492
48143,2805417368
41047,3057633979
48007,652856775
40055,1655732413
54057,849172613
17189,1457093517
05127,2311217233
20099,1671560716
47087,799341509
12069,2462450874
18127,1082833138
39073,1091235303
39109,1052862600
60020,57620993
27083,1850315129
18055,1404983917
45063,1810381403
46055,4689279880
19043,2016295997
22099,1909395777
08073,6676158660
05103,1897898727
40071,2381740395
20123,1817632931
54093,1085320037
54015,885617251
18167,1045190744
39005,1095464861
35015,10816683024
31117,2224733578
55113,3257235817
34017,119640830
48431,2391722770
32011,10814982421
35009,3640261520
51035,1229582397
29087,1198369593
48295,2414422645
21021,467104121
55095,2368077716
29055,1923005893
21015,637873437
31113,1478003936
27009,1057483359
37165,826570080
17139,870134336
12065,1549012954
48349,2614975609
35045,14289491641
17179,1674335551
01061,1487897665
19055,1496189232
12047,1330689567
28045,1227561278
31155,1940652995
36009,3388424412
21121,1000523173
53023,1841054899
45073,1622673901
46103,7191788460
17187,1404768322
01089,2076111961
48063,507242994
19145,1385497539
37133,1973754758
47057,726715762
27017,2230766984
21057,790453070
17153,516225217
17119,1853152211
20205,1477385750
22069,3243376637
51139,802949703
48293,2345053175
19095,1518911694
51193,593950700
48463,4019455750
19063,1025349330
37183,2162195848
32017,27540342245
26115,1422810326
46069,2229019817
13195,731225616
28141,1098938846
55069,2275832611
36033,4219644200
28081,1165404281
20077,2075290355
19133,1797637888
31177,1009985093
20201,2317418815
29203,2599884451
27129,2545744685
35037,7443508573
12133,1514305977
48069,2316600395
21049,653939112
26005,2137395807
27103,1161894042
55075,3624599219
25009,1275609141
55043,2970402180
72131,182394906
36087,449218387
05089,1546110609
27151,1921727343
29033,1799061892
46127,1193354526
48175,2206698610
29065,1949641178
51047,982089164
47113,1443073936
31115,1459513669
28147,1046169277
45017,987179026
42121,1746388602
39149,1055927003
01039,2669134207
46091,2170724143
08071,12361852579
54059,1095926641
06079,8548557892
27019,917364672
34021,581297755
12015,1764058559
48361,864501083
39133,1262370046
48247,2942674728
13089,693420786
48215,4068395785
41049,5259046542
27153,2447760759
16065,1215396310
21001,1049691067
02188,92369226065
40059,2689919308
28055,1069782879
48277,2349626845
51580,14163842
04021,13897997152
72051,59870092
47041,788430955
36103,2361568402
28003,1036110405
31001,1458872841
05071,1708980734
48083,3270933226
16081,1163139972
16077,3635892388
36001,1354120788
09011,1722711022
08023,3179452298
45069,1242867241
37031,1314684783
19037,1306192609
19081,1478895050
19061,1575487988
56009,11020303973
42061,2265337398
42009,2621851579
27089,4597384471
49029,1577739404
27007,6487154450
25007,267300554
08029,2958090985
01085,1854201377
06105,8234265082
48003,3886850260
37077,1377850155
30029,13175781006
42097,1186233370
41061,5275651497
40075,2629039881
20145,1953531647
20209,392739405
02240,64290716362
39095,879702815
27065,1351000097
26019,828014431
27081,1390257746
13307,542230981
30089,7149405173
19197,1503268903
27021,5235592104
28163,2388847490
41025,26248072899
46029,1780837047
46007,3068207886
24041,695561625
05081,1378511385
51161,648906307
18025,791534792
72041,93294517
12067,1407256297
48243,5865172239
47029,1129584564
47067,575816109
54105,602201079
29075,1272776755
37015,1810858586
26063,2165285423
21221,1143637621
01069,1501819549
21137,862060145
20087,1379350886
22045,1486894804
48161,2273311879
06057,2480587338
48241,2431105363
39143,1057350969
51790,51593819
39113,1195326276
46095,3385957222
28093,1829011187
20095,2236245127
36117,1563912968
18027,1112396613
08057,4179530230
29133,1065995425
39141,1784986619
21111,986032282
21075,533359371
19003,1096686238
13007,885665383
13087,1546667779
48455,1796924637
54053,1115682321
08119,1442732301
37089,965918074
17047,576012469
21069,902727568
46123,4176247415
45043,2107975277
27119,5105054562
27127,2275493336
22041,1617688504
29083,1805078265
20147,2294395646
72105,70969182
20161,1579116617
01065,1667917734
48397,329224077
16037,12748378763
27057,2398345712
31151,1486812294
47003,1226719779
41001,7945996793
06111,4771987962
19025,1475894599
72121,94050247
42033,2964714508
26013,2326914366
56003,8124681755
38101,5213464365
28139,1185754629
06043,3752472150
27139,922692855
47099,1598359112
25019,119566672
45009,1018815104
17037,1635154165
48211,2347270020
05121,1689251373
13143,730804591
37003,673358168
47023,740053453
19185,1361013816
38063,2542889235
42085,1741807476
17193,1281999214
55039,1863667187
55061,886951818
48369,2281312149
20167,2295402862
22083,1439329200
01133,1587614057
48155,1824378631
06071,51975576263
31055,845399899
51600,16162729
21067,734616008
40125,2040370700
02122,41499872077
55035,1652211280
17105,2702983877
48115,2331781561
02261,88634209842
46085,4253139889
22119,1536337099
06115,1636913845
29183,1451718690
13109,473694908
48173,2331552974
38031,1642258774
31121,1258350331
55119,2525371159
28113,1059350505
17203,1366821840
18045,1024774345
05003,2396668938
31075,2012081437
72087,50147905
40035,1971621943
48231,2176665528
05135,1565401499
55055,1441306090
51053,1305053884
28083,1538645698
39081,1057037023
40107,1601767639
72013,326179587
20141,2311604928
19071,1323915763
37119,1356068834
06047,5014506620
47183,1503107848
01103,1501156832
50013,211881634
34041,923424386
24017,1185688597
05025,1548239710
20047,1610699245
35005,15713907540
30075,8542288888
32027,15634691964
35001,3007645106
34033,859517464
12009,2628793422
12077,2164099094
18095,1170467555
08061,4578603586
19079,1493784356
44001,62502352
01051,1601768864
51107,1335826412
37127,1399742823
21155,888463711
13153,973947729
26041,3033137838
21033,893002030
21045,1150572403
21163,791093698
36005,108909571
31135,2287828027
21053,510875755
48189,2602109427
28061,1751454613
39047,1052469899
78030,81108425
55063,1170076618
22021,1371371987
29123,1280458107
13265,504031037
34007,573293905
37115,1164497715
41051,1116560269
54005,1298967362
21119,910427588
27063,1820689416
18089,1291857838
15003,1555472299
08093,5682182508
48435,3765674776
01057,1625693288
72097,201174433
72123,179731087
46015,2116643978
42019,2044946885
29201,1087772859
17103,1877189067
48091,1449162144
36011,1791190510
20181,2735193249
39169,1436939444
06053,8499616876
18065,1014963816
21159,594708779
21189,511288846
49027,17574363583
30051,3703639182
29003,1120509776
54077,1680419586
55135,1936517513
12103,709079114
37189,809217076
54031,1508191847
47111,795498353
20177,1409012933
48385,1810812868
46027,1067154439
54001,883338380
47175,708142417
19007,1287978861
22097,2392922808
36069,1668081009
40085,1331024899
26059,1549207129
31003,2220025598
18131,1123212810
37049,1830014535
18013,808043860
08007,3496712109
42025,987432366
47171,481902940
45083,2092048331
41033,4244080709
17051,1855567160
13305,1662608486
53007,7565817923
37149,615606314
42051,2047006949
72011,101747427
20183,2319241781
22031,2269932580
53019,5706361267
37035,1039550834
22017,2276773700
37113,1335344512
21105,627487969
17099,2940070811
55101,861403264
08065,976215867
06085,3343890934
45019,2377463289
39027,1058489018
08105,2361956092
37179,1638745719
05147,1519769776
30045,4842466678
72137,60201696
35039,15179590198
55077,1180288193
53055,450429127
08047,388556733
54003,831770844
13165,899567385
12121,1783342112
72015,38869489
18079,975382328
36021,1643770776
16073,19860561638
46057,1313016440
54081,1567869626
26027,1269366892
28099,1476641125
17143,1602464183
27097,2913980722
40091,1601359179
19115,1040584001
36035,1283234678
22101,1438956831
27015,1582765932
21239,492386256
56039,10351784298
38059,4988026151
37021,1700318985
48487,2514738098
37117,1182135160
18121,1151822270
19017,1127885584
48343,652649031
50001,1984780267
29185,1748193269
16063,3111517528
47039,864739794
38041,2932485809
60040,2432605
18093,1163367162
21169,750166102
29155,1275870101
48319,2405674102
54099,1310550727
08109,8206547705
48077,2819870186
48177,2762704862
12129,1570615733
12127,2852204344
05113,2220863254
18069,991056705
18099,1148969980
27045,2230746821
23001,1211990512
41035,15391639810
36075,2464751381
51167,1226420311
51510,38679383
06067,2499983887
06009,2641784992
33009,4425254602
47081,1586324709
36077,2594487145
21201,258794974
47089,712435058
08085,5804023558
51760,155199987
22055,696088606
48237,2359323752
24013,1159352918
53031,4671624000
38097,2232235429
29177,1473209199
28125,1118149686
51750,25061727
72005,94616373
18119,997911601
53013,2249624769
20171,1858536839
01071,2791974032
21197,463558849
39057,1071283002
48187,1842136094
53029,540043816
19177,1255646304
42089,1575379455
05101,2126132564
16017,4489055950
13047,419998844
16011,5422897822
38105,5380949615
46005,3260040834
38007,2974571254
13211,899770619
30007,3088195834
49053,6287037025
13135,1115308546
53051,3626653301
51017,1370626056
30053,9356423252
48229,11837605308
26057,1472098934
05021,1656214474
54109,1293620915
29085,1032908401
39101,1045858048
06011,2980332742
18159,674797609
27155,1486320975
37143,640169367
22081,1007742987
48207,2339103809
40083,1926542719
22023,3327796101
48221,1089630253
46117,3741060733
01025,3207494106
13065,2110829176
19035,1494181147
05077,1560781755
13239,391703076
09005,2384120288
02185,2.30054E+11
23015,1180688991
51830,23155310
48135,2325322369
37199,809610027
48017,2141847187
21173,511132776
17003,609667772
16083,4977200216
26055,1202625065
20041,2193894223
40129,2955503143
45039,1777521231
72075,156117101
08121,6521806798
48033,2324366073
20131,1858127940
06005,1539933596
05125,1874047317
20119,2533222397
30071,13313777226
46037,2663788603
18001,877815499
22011,2997555223
48001,2752201306
51033,1366502847
46051,1764937242
42129,2662612862
27135,4329471929
06091,2468694583
47065,1404722581
25025,150863059
17067,2055798692
17113,3064600918
55033,2201905281
42127,1879296554
30015,10288824735
35059,9906866302
37155,2453435687
05083,1834415737
05091,1620637610
05001,2561013146
37151,2026229975
40081,2466630673
18129,1060259608
42031,1556156290
46087,1487184878
08081,12284943819
21237,575419135
45015,2858491238
39111,1180317741
27027,2707051032
12027,1649027549
08043,3970664378
51075,726830013
30031,6746958038
31143,1135309851
34005,2070157741
33007,4647923684
48037,2292144474
40133,1639027599
32033,23016356483
13081,706236812
36053,1696048608
18081,829945881
29223,1966281378
26087,1675675444
22027,1955125376
47017,1547925981
13197,947979449
29175,1250217888
41039,11800116009
31013,2784994713
21083,1429041267
35053,17214061650
39007,1818360017
13163,1363760603
53065,6416424160
49041,4948000018
46075,2511438721
51840,23809495
28077,1115254017
72109,120695655
23011,2246734973
21161,621924408
48129,2400676101
02070,47478730849
40049,2077453378
49015,11557242836
40021,1939904010
19127,1482776062
55027,2268044939
06039,5534617472
30037,3041740578
24039,828145299
31167,1107500697
51081,764634553
21135,1250548600
24029,717516438
35029,7679776973
46011,2051856894
35031,14117193195
23021,10259018205
42091,1250877387
26011,940627657
53027,4924766221
20081,1495772610
54097,918506902
72035,134509875
39075,1094405864
12097,3438372945
55103,1518120262
56033,6535475106
48113,2259439988
36017,2314393900
42081,3182485518
28063,1346620554
30103,2532492070
46093,8989677189
08041,5508514019
05117,1677973068
23007,4395220899
21165,527283203
26029,1078288786
39165,1039075224
39083,1361052758
51105,1127622392
18183,869152583
05139,2691655893
08005,2066706152
23003,17278050008
28065,1057871313
47047,1825359642
31107,2870854403
41067,1875859540
50025,2034457838
